\relax 
\providecommand\hyper@newdestlabel[2]{}
\providecommand\HyperFirstAtBeginDocument{\AtBeginDocument}
\HyperFirstAtBeginDocument{\ifx\hyper@anchor\@undefined
\global\let\oldcontentsline\contentsline
\gdef\contentsline#1#2#3#4{\oldcontentsline{#1}{#2}{#3}}
\global\let\oldnewlabel\newlabel
\gdef\newlabel#1#2{\newlabelxx{#1}#2}
\gdef\newlabelxx#1#2#3#4#5#6{\oldnewlabel{#1}{{#2}{#3}}}
\AtEndDocument{\ifx\hyper@anchor\@undefined
\let\contentsline\oldcontentsline
\let\newlabel\oldnewlabel
\fi}
\fi}
\global\let\hyper@last\relax 
\gdef\HyperFirstAtBeginDocument#1{#1}
\providecommand\HyField@AuxAddToFields[1]{}
\providecommand\HyField@AuxAddToCoFields[2]{}
\select@language{english}
\@writefile{toc}{\select@language{english}}
\@writefile{lof}{\select@language{english}}
\@writefile{lot}{\select@language{english}}
\newlabel{index::doc}{{}{1}{}{section*.2}{}}
\@writefile{toc}{\contentsline {chapter}{\numberline {1}CentOS 7.0}{1}{chapter.1}}
\@writefile{lof}{\addvspace {10\p@ }}
\@writefile{lot}{\addvspace {10\p@ }}
\newlabel{centos-install::doc}{{1}{1}{CentOS 7.0}{chapter.1}{}}
\newlabel{centos-install:welcome-to-sphinx-s-documentation}{{1}{1}{CentOS 7.0}{chapter.1}{}}
\newlabel{centos-install:centos-7-0}{{1}{1}{CentOS 7.0}{chapter.1}{}}
\@writefile{toc}{\contentsline {section}{\numberline {1.1}Installation}{1}{section.1.1}}
\newlabel{centos-install:installation}{{1.1}{1}{Installation}{section.1.1}{}}
\@writefile{toc}{\contentsline {subsection}{\numberline {1.1.1}Serveur avec GUI}{1}{subsection.1.1.1}}
\newlabel{centos-install:serveur-avec-gui}{{1.1.1}{1}{Serveur avec GUI}{subsection.1.1.1}{}}
\@writefile{toc}{\contentsline {subsection}{\numberline {1.1.2}Alternative : Serveur sans GUI}{1}{subsection.1.1.2}}
\newlabel{centos-install:alternative-serveur-sans-gui}{{1.1.2}{1}{Alternative : Serveur sans GUI}{subsection.1.1.2}{}}
\@writefile{toc}{\contentsline {subsection}{\numberline {1.1.3}Installation des derni\IeC {\`e}res mise \IeC {\`a} jour}{1}{subsection.1.1.3}}
\newlabel{centos-install:installation-des-dernieres-mise-a-jour}{{1.1.3}{1}{Installation des dernières mise à jour}{subsection.1.1.3}{}}
\@writefile{toc}{\contentsline {subsection}{\numberline {1.1.4}CentOS minimal version - Installation d'applications utiles}{1}{subsection.1.1.4}}
\newlabel{centos-install:centos-minimal-version-installation-d-applications-utiles}{{1.1.4}{1}{CentOS minimal version - Installation d'applications utiles}{subsection.1.1.4}{}}
\@writefile{toc}{\contentsline {section}{\numberline {1.2}Configuration}{2}{section.1.2}}
\newlabel{centos-install:configuration}{{1.2}{2}{Configuration}{section.1.2}{}}
\@writefile{toc}{\contentsline {subsection}{\numberline {1.2.1}D\IeC {\'e}sactiver SELinux}{2}{subsection.1.2.1}}
\newlabel{centos-install:desactiver-selinux}{{1.2.1}{2}{Désactiver SELinux}{subsection.1.2.1}{}}
\@writefile{toc}{\contentsline {subsection}{\numberline {1.2.2}CentOS minimal version - Utilisateur shinken}{2}{subsection.1.2.2}}
\newlabel{centos-install:centos-minimal-version-utilisateur-shinken}{{1.2.2}{2}{CentOS minimal version - Utilisateur shinken}{subsection.1.2.2}{}}
\@writefile{toc}{\contentsline {subsection}{\numberline {1.2.3}Installation et configuration du client NTP}{2}{subsection.1.2.3}}
\newlabel{centos-install:installation-et-configuration-du-client-ntp}{{1.2.3}{2}{Installation et configuration du client NTP}{subsection.1.2.3}{}}
\@writefile{toc}{\contentsline {subsection}{\numberline {1.2.4}Remplacer firewalld par iptables}{3}{subsection.1.2.4}}
\newlabel{centos-install:remplacer-firewalld-par-iptables}{{1.2.4}{3}{Remplacer firewalld par iptables}{subsection.1.2.4}{}}
\@writefile{toc}{\contentsline {section}{\numberline {1.3}D\IeC {\'e}sactiver IPv6 sur toutes les interfaces}{4}{section.1.3}}
\newlabel{centos-install:desactiver-ipv6-sur-toutes-les-interfaces}{{1.3}{4}{Désactiver IPv6 sur toutes les interfaces}{section.1.3}{}}
\@writefile{toc}{\contentsline {section}{\numberline {1.4}D\IeC {\'e}finition d'une adresse IP statique}{4}{section.1.4}}
\newlabel{centos-install:definition-d-une-adresse-ip-statique}{{1.4}{4}{Définition d'une adresse IP statique}{section.1.4}{}}
\@writefile{toc}{\contentsline {chapter}{\numberline {2}Shinken 2.4}{7}{chapter.2}}
\@writefile{lof}{\addvspace {10\p@ }}
\@writefile{lot}{\addvspace {10\p@ }}
\newlabel{shinken-install:shinken-2-4}{{2}{7}{Shinken 2.4}{chapter.2}{}}
\newlabel{shinken-install::doc}{{2}{7}{Shinken 2.4}{chapter.2}{}}
\@writefile{toc}{\contentsline {section}{\numberline {2.1}D\IeC {\'e}finition}{7}{section.2.1}}
\newlabel{shinken-install:definition}{{2.1}{7}{Définition}{section.2.1}{}}
\@writefile{toc}{\contentsline {section}{\numberline {2.2}Installation}{7}{section.2.2}}
\newlabel{shinken-install:installation}{{2.2}{7}{Installation}{section.2.2}{}}
\newlabel{shinken-install:nagios}{{2.2}{7}{Installation}{section.2.2}{}}
\@writefile{toc}{\contentsline {subsection}{\numberline {2.2.1}Installation des d\IeC {\'e}pendances li\IeC {\'e}s \IeC {\`a} Shinken}{7}{subsection.2.2.1}}
\newlabel{shinken-install:installation-des-dependances-lies-a-shinken}{{2.2.1}{7}{Installation des dépendances liés à Shinken}{subsection.2.2.1}{}}
\@writefile{toc}{\contentsline {subsection}{\numberline {2.2.2}Installation de PIP, puis de Shinken (2.4) via PIP}{7}{subsection.2.2.2}}
\newlabel{shinken-install:installation-de-pip-puis-de-shinken-2-4-via-pip}{{2.2.2}{7}{Installation de PIP, puis de Shinken (2.4) via PIP}{subsection.2.2.2}{}}
\@writefile{toc}{\contentsline {section}{\numberline {2.3}Configuration}{8}{section.2.3}}
\newlabel{shinken-install:configuration}{{2.3}{8}{Configuration}{section.2.3}{}}
\@writefile{toc}{\contentsline {subsection}{\numberline {2.3.1}Ajouter Shinken au d\IeC {\'e}marrage de CentOS}{8}{subsection.2.3.1}}
\newlabel{shinken-install:ajouter-shinken-au-demarrage-de-centos}{{2.3.1}{8}{Ajouter Shinken au démarrage de CentOS}{subsection.2.3.1}{}}
\@writefile{toc}{\contentsline {subsection}{\numberline {2.3.2}D\IeC {\'e}marrer Shinken}{8}{subsection.2.3.2}}
\newlabel{shinken-install:demarrer-shinken}{{2.3.2}{8}{Démarrer Shinken}{subsection.2.3.2}{}}
\@writefile{toc}{\contentsline {subsection}{\numberline {2.3.3}Liste des commandes disponible avec Shinken}{8}{subsection.2.3.3}}
\newlabel{shinken-install:liste-des-commandes-disponible-avec-shinken}{{2.3.3}{8}{Liste des commandes disponible avec Shinken}{subsection.2.3.3}{}}
\@writefile{toc}{\contentsline {subsection}{\numberline {2.3.4}Initialiser Shinken}{8}{subsection.2.3.4}}
\newlabel{shinken-install:initialiser-shinken}{{2.3.4}{8}{Initialiser Shinken}{subsection.2.3.4}{}}
\@writefile{toc}{\contentsline {section}{\numberline {2.4}Probl\IeC {\`e}me avec Shinken 2.4: Apr\IeC {\`e}s reboot, le service ne d\IeC {\'e}marre pas}{8}{section.2.4}}
\newlabel{shinken-install:probleme-avec-shinken-2-4-apres-reboot-le-service-ne-demarre-pas}{{2.4}{8}{Problème avec Shinken 2.4: Après reboot, le service ne démarre pas}{section.2.4}{}}
\@writefile{toc}{\contentsline {chapter}{\numberline {3}MongoDB 3.0}{11}{chapter.3}}
\@writefile{lof}{\addvspace {10\p@ }}
\@writefile{lot}{\addvspace {10\p@ }}
\newlabel{shinken-mongodb::doc}{{3}{11}{MongoDB 3.0}{chapter.3}{}}
\newlabel{shinken-mongodb:mongodb-3-0}{{3}{11}{MongoDB 3.0}{chapter.3}{}}
\@writefile{toc}{\contentsline {section}{\numberline {3.1}D\IeC {\'e}finition}{11}{section.3.1}}
\newlabel{shinken-mongodb:definition}{{3.1}{11}{Définition}{section.3.1}{}}
\@writefile{toc}{\contentsline {section}{\numberline {3.2}Installation}{11}{section.3.2}}
\newlabel{shinken-mongodb:installation}{{3.2}{11}{Installation}{section.3.2}{}}
\@writefile{toc}{\contentsline {section}{\numberline {3.3}Configuration}{12}{section.3.3}}
\newlabel{shinken-mongodb:configuration}{{3.3}{12}{Configuration}{section.3.3}{}}
\@writefile{toc}{\contentsline {chapter}{\numberline {4}Modules compl\IeC {\'e}mentaires Shinken}{13}{chapter.4}}
\@writefile{lof}{\addvspace {10\p@ }}
\@writefile{lot}{\addvspace {10\p@ }}
\newlabel{modules/index:modules-complementaires-shinken}{{4}{13}{Modules complémentaires Shinken}{chapter.4}{}}
\newlabel{modules/index::doc}{{4}{13}{Modules complémentaires Shinken}{chapter.4}{}}
\@writefile{toc}{\contentsline {section}{\numberline {4.1}webui}{14}{section.4.1}}
\newlabel{modules/shinken-modules-webui::doc}{{4.1}{14}{webui}{section.4.1}{}}
\newlabel{modules/shinken-modules-webui:webui}{{4.1}{14}{webui}{section.4.1}{}}
\@writefile{toc}{\contentsline {subsection}{\numberline {4.1.1}Description}{14}{subsection.4.1.1}}
\newlabel{modules/shinken-modules-webui:point-suivant}{{4.1.1}{14}{Description}{subsection.4.1.1}{}}
\newlabel{modules/shinken-modules-webui:description}{{4.1.1}{14}{Description}{subsection.4.1.1}{}}
\@writefile{toc}{\contentsline {subsection}{\numberline {4.1.2}Installation}{14}{subsection.4.1.2}}
\newlabel{modules/shinken-modules-webui:installation}{{4.1.2}{14}{Installation}{subsection.4.1.2}{}}
\@writefile{toc}{\contentsline {subsection}{\numberline {4.1.3}Configuration}{14}{subsection.4.1.3}}
\newlabel{modules/shinken-modules-webui:configuration}{{4.1.3}{14}{Configuration}{subsection.4.1.3}{}}
\@writefile{toc}{\contentsline {subsubsection}{Ouverture du port du pare-feu}{14}{subsubsection*.3}}
\newlabel{modules/shinken-modules-webui:ouverture-du-port-du-pare-feu}{{4.1.3}{14}{Ouverture du port du pare-feu}{subsubsection*.3}{}}
\@writefile{toc}{\contentsline {subsubsection}{Installation et configuration du module auth-cfg-password}{15}{subsubsection*.4}}
\newlabel{modules/shinken-modules-webui:installation-et-configuration-du-module-auth-cfg-password}{{4.1.3}{15}{Installation et configuration du module auth-cfg-password}{subsubsection*.4}{}}
\@writefile{toc}{\contentsline {subsubsection}{Installation et configuration du module sqlite}{15}{subsubsection*.5}}
\newlabel{modules/shinken-modules-webui:installation-et-configuration-du-module-sqlite}{{4.1.3}{15}{Installation et configuration du module sqlite}{subsubsection*.5}{}}
\@writefile{toc}{\contentsline {section}{\numberline {4.2}webui2}{16}{section.4.2}}
\newlabel{modules/shinken-modules-webui2:webui2}{{4.2}{16}{webui2}{section.4.2}{}}
\newlabel{modules/shinken-modules-webui2::doc}{{4.2}{16}{webui2}{section.4.2}{}}
\@writefile{toc}{\contentsline {subsection}{\numberline {4.2.1}Description}{16}{subsection.4.2.1}}
\newlabel{modules/shinken-modules-webui2:description}{{4.2.1}{16}{Description}{subsection.4.2.1}{}}
\@writefile{toc}{\contentsline {subsection}{\numberline {4.2.2}Installation}{16}{subsection.4.2.2}}
\newlabel{modules/shinken-modules-webui2:installation}{{4.2.2}{16}{Installation}{subsection.4.2.2}{}}
\newlabel{modules/shinken-modules-webui2:repertoire-officiel-github-du-module}{{4.2.2}{16}{Installation}{subsection.4.2.2}{}}
\@writefile{toc}{\contentsline {subsection}{\numberline {4.2.3}Configuration}{17}{subsection.4.2.3}}
\newlabel{modules/shinken-modules-webui2:configuration}{{4.2.3}{17}{Configuration}{subsection.4.2.3}{}}
\@writefile{toc}{\contentsline {section}{\numberline {4.3}Monitoring-Plugins}{17}{section.4.3}}
\newlabel{modules/shinken-modules-monitor_plugins:monitoring-plugins}{{4.3}{17}{Monitoring-Plugins}{section.4.3}{}}
\newlabel{modules/shinken-modules-monitor_plugins::doc}{{4.3}{17}{Monitoring-Plugins}{section.4.3}{}}
\@writefile{toc}{\contentsline {subsection}{\numberline {4.3.1}Description}{17}{subsection.4.3.1}}
\newlabel{modules/shinken-modules-monitor_plugins:description}{{4.3.1}{17}{Description}{subsection.4.3.1}{}}
\@writefile{toc}{\contentsline {subsection}{\numberline {4.3.2}Installation}{18}{subsection.4.3.2}}
\newlabel{modules/shinken-modules-monitor_plugins:installation}{{4.3.2}{18}{Installation}{subsection.4.3.2}{}}
\@writefile{toc}{\contentsline {subsection}{\numberline {4.3.3}Configuration}{18}{subsection.4.3.3}}
\newlabel{modules/shinken-modules-monitor_plugins:configuration}{{4.3.3}{18}{Configuration}{subsection.4.3.3}{}}
\@writefile{toc}{\contentsline {section}{\numberline {4.4}linux-snmp}{19}{section.4.4}}
\newlabel{modules/shinken-modules-linux_snmp::doc}{{4.4}{19}{linux-snmp}{section.4.4}{}}
\newlabel{modules/shinken-modules-linux_snmp:linux-snmp}{{4.4}{19}{linux-snmp}{section.4.4}{}}
\@writefile{toc}{\contentsline {subsection}{\numberline {4.4.1}Description}{19}{subsection.4.4.1}}
\newlabel{modules/shinken-modules-linux_snmp:description}{{4.4.1}{19}{Description}{subsection.4.4.1}{}}
\@writefile{toc}{\contentsline {subsection}{\numberline {4.4.2}Installation du module}{19}{subsection.4.4.2}}
\newlabel{modules/shinken-modules-linux_snmp:installation-du-module}{{4.4.2}{19}{Installation du module}{subsection.4.4.2}{}}
\newlabel{modules/shinken-modules-linux_snmp:naparabua}{{4.4.2}{19}{Installation du module}{subsection.4.4.2}{}}
\@writefile{toc}{\contentsline {subsection}{\numberline {4.4.3}Ajout du service au fichier de configuration de l'h\IeC {\^o}te}{19}{subsection.4.4.3}}
\newlabel{modules/shinken-modules-linux_snmp:ajout-du-service-au-fichier-de-configuration-de-l-hote}{{4.4.3}{19}{Ajout du service au fichier de configuration de l'hôte}{subsection.4.4.3}{}}
\@writefile{toc}{\contentsline {section}{\numberline {4.5}linux-ssh}{19}{section.4.5}}
\newlabel{modules/shinken-modules-linux_ssh::doc}{{4.5}{19}{linux-ssh}{section.4.5}{}}
\newlabel{modules/shinken-modules-linux_ssh:linux-ssh}{{4.5}{19}{linux-ssh}{section.4.5}{}}
\@writefile{toc}{\contentsline {subsection}{\numberline {4.5.1}Description}{19}{subsection.4.5.1}}
\newlabel{modules/shinken-modules-linux_ssh:description}{{4.5.1}{19}{Description}{subsection.4.5.1}{}}
\@writefile{toc}{\contentsline {subsection}{\numberline {4.5.2}Installation du module}{20}{subsection.4.5.2}}
\newlabel{modules/shinken-modules-linux_ssh:installation-du-module}{{4.5.2}{20}{Installation du module}{subsection.4.5.2}{}}
\newlabel{modules/shinken-modules-linux_ssh:shinken}{{4.5.2}{20}{Installation du module}{subsection.4.5.2}{}}
\@writefile{toc}{\contentsline {subsection}{\numberline {4.5.3}Configuration du module}{20}{subsection.4.5.3}}
\newlabel{modules/shinken-modules-linux_ssh:configuration-du-module}{{4.5.3}{20}{Configuration du module}{subsection.4.5.3}{}}
\@writefile{toc}{\contentsline {subsubsection}{Ajout du service au fichier de configuration de l'h\IeC {\^o}te}{21}{subsubsection*.6}}
\newlabel{modules/shinken-modules-linux_ssh:ajout-du-service-au-fichier-de-configuration-de-l-hote}{{4.5.3}{21}{Ajout du service au fichier de configuration de l'hôte}{subsubsection*.6}{}}
\@writefile{toc}{\contentsline {chapter}{\numberline {5}Graphite 0.9.10}{23}{chapter.5}}
\@writefile{lof}{\addvspace {10\p@ }}
\@writefile{lot}{\addvspace {10\p@ }}
\newlabel{shinken-graphite-install:graphite-0-9-10}{{5}{23}{Graphite 0.9.10}{chapter.5}{}}
\newlabel{shinken-graphite-install::doc}{{5}{23}{Graphite 0.9.10}{chapter.5}{}}
\@writefile{toc}{\contentsline {section}{\numberline {5.1}D\IeC {\'e}finition}{23}{section.5.1}}
\newlabel{shinken-graphite-install:definition}{{5.1}{23}{Définition}{section.5.1}{}}
\@writefile{toc}{\contentsline {section}{\numberline {5.2}Installation}{24}{section.5.2}}
\newlabel{shinken-graphite-install:installation}{{5.2}{24}{Installation}{section.5.2}{}}
\@writefile{toc}{\contentsline {subsection}{\numberline {5.2.1}Installation des d\IeC {\'e}pendances (via YUM)}{24}{subsection.5.2.1}}
\newlabel{shinken-graphite-install:installation-des-dependances-via-yum}{{5.2.1}{24}{Installation des dépendances (via YUM)}{subsection.5.2.1}{}}
\newlabel{shinken-graphite-install:lien-vers-le-script-python}{{5.2.1}{24}{Installation des dépendances (via YUM)}{subsection.5.2.1}{}}
\@writefile{toc}{\contentsline {subsection}{\numberline {5.2.2}Installation des d\IeC {\'e}pendances (via PIP)}{24}{subsection.5.2.2}}
\newlabel{shinken-graphite-install:installation-des-dependances-via-pip}{{5.2.2}{24}{Installation des dépendances (via PIP)}{subsection.5.2.2}{}}
\@writefile{toc}{\contentsline {subsection}{\numberline {5.2.3}T\IeC {\'e}l\IeC {\'e}chargement et installation de mod\_python 3.5.0}{24}{subsection.5.2.3}}
\newlabel{shinken-graphite-install:zope-interface}{{5.2.3}{24}{Téléchargement et installation de mod\_python 3.5.0}{subsection.5.2.3}{}}
\newlabel{shinken-graphite-install:telechargement-et-installation-de-mod-python-3-5-0}{{5.2.3}{24}{Téléchargement et installation de mod\_python 3.5.0}{subsection.5.2.3}{}}
\@writefile{toc}{\contentsline {subsection}{\numberline {5.2.4}T\IeC {\'e}l\IeC {\'e}chargement et installation de txAMQP v.0.6.2}{26}{subsection.5.2.4}}
\newlabel{shinken-graphite-install:telechargement-et-installation-de-txamqp-v-0-6-2}{{5.2.4}{26}{Téléchargement et installation de txAMQP v.0.6.2}{subsection.5.2.4}{}}
\@writefile{toc}{\contentsline {subsection}{\numberline {5.2.5}T\IeC {\'e}l\IeC {\'e}chargement et installation de Carbon v.0.9.10}{27}{subsection.5.2.5}}
\newlabel{shinken-graphite-install:telechargement-et-installation-de-carbon-v-0-9-10}{{5.2.5}{27}{Téléchargement et installation de Carbon v.0.9.10}{subsection.5.2.5}{}}
\@writefile{toc}{\contentsline {subsection}{\numberline {5.2.6}T\IeC {\'e}l\IeC {\'e}chargement et installation de Graphite-Web v.0.9.10}{27}{subsection.5.2.6}}
\newlabel{shinken-graphite-install:telechargement-et-installation-de-graphite-web-v-0-9-10}{{5.2.6}{27}{Téléchargement et installation de Graphite-Web v.0.9.10}{subsection.5.2.6}{}}
\@writefile{toc}{\contentsline {section}{\numberline {5.3}Configuration de Graphite}{27}{section.5.3}}
\newlabel{shinken-graphite-install:configuration-de-graphite}{{5.3}{27}{Configuration de Graphite}{section.5.3}{}}
\@writefile{toc}{\contentsline {subsection}{\numberline {5.3.1}Configuration de l'h\IeC {\^o}te virtuel de Graphite-Web}{29}{subsection.5.3.1}}
\newlabel{shinken-graphite-install:configuration-de-l-hote-virtuel-de-graphite-web}{{5.3.1}{29}{Configuration de l'hôte virtuel de Graphite-Web}{subsection.5.3.1}{}}
\@writefile{toc}{\contentsline {section}{\numberline {5.4}Configuration de Carbon}{30}{section.5.4}}
\newlabel{shinken-graphite-install:configuration-de-carbon}{{5.4}{30}{Configuration de Carbon}{section.5.4}{}}
\@writefile{toc}{\contentsline {subsection}{\numberline {5.4.1}Script de d\IeC {\'e}marrage Carbon}{30}{subsection.5.4.1}}
\newlabel{shinken-graphite-install:script-de-demarrage-carbon}{{5.4.1}{30}{Script de démarrage Carbon}{subsection.5.4.1}{}}
\@writefile{toc}{\contentsline {chapter}{\numberline {6}D\IeC {\'e}finitions des h\IeC {\^o}tes}{33}{chapter.6}}
\@writefile{lof}{\addvspace {10\p@ }}
\@writefile{lot}{\addvspace {10\p@ }}
\newlabel{shinken-cfg-host:definitions-des-hotes}{{6}{33}{Définitions des hôtes}{chapter.6}{}}
\newlabel{shinken-cfg-host::doc}{{6}{33}{Définitions des hôtes}{chapter.6}{}}
\@writefile{toc}{\contentsline {chapter}{\numberline {7}Astuces}{35}{chapter.7}}
\@writefile{lof}{\addvspace {10\p@ }}
\@writefile{lot}{\addvspace {10\p@ }}
\newlabel{tooltips:astuces}{{7}{35}{Astuces}{chapter.7}{}}
\newlabel{tooltips::doc}{{7}{35}{Astuces}{chapter.7}{}}
\@writefile{toc}{\contentsline {section}{\numberline {7.1}G\IeC {\'e}n\IeC {\'e}rale}{35}{section.7.1}}
\newlabel{tooltips:generale}{{7.1}{35}{Générale}{section.7.1}{}}
\@writefile{toc}{\contentsline {section}{\numberline {7.2}R\IeC {\'e}seau}{35}{section.7.2}}
\newlabel{tooltips:reseau}{{7.2}{35}{Réseau}{section.7.2}{}}
\@writefile{toc}{\contentsline {section}{\numberline {7.3}SSH}{36}{section.7.3}}
\newlabel{tooltips:ssh}{{7.3}{36}{SSH}{section.7.3}{}}
\@writefile{toc}{\contentsline {section}{\numberline {7.4}SELinux}{36}{section.7.4}}
\newlabel{tooltips:selinux}{{7.4}{36}{SELinux}{section.7.4}{}}
\@writefile{toc}{\contentsline {chapter}{\numberline {8}Indices and tables}{37}{chapter.8}}
\@writefile{lof}{\addvspace {10\p@ }}
\@writefile{lot}{\addvspace {10\p@ }}
\newlabel{index:indices-and-tables}{{8}{37}{Indices and tables}{chapter.8}{}}
